%YAML 1.1
%TAG !u! tag:unity3d.com,2011:
--- !u!1 &100000
GameObject:
  m_ObjectHideFlags: 0
  m_PrefabParentObject: {fileID: 0}
  m_PrefabInternal: {fileID: 100100000}
  serializedVersion: 5
  m_Component:
  - component: {fileID: 400000}
  - component: {fileID: 6100000}
  - component: {fileID: 11400002}
  - component: {fileID: 11400000}
  - component: {fileID: 11405038}
  m_Layer: 0
  m_Name: Basic Player Controller
  m_TagString: Untagged
  m_Icon: {fileID: 0}
  m_NavMeshLayer: 0
  m_StaticEditorFlags: 0
  m_IsActive: 1
--- !u!1 &173962
GameObject:
  m_ObjectHideFlags: 0
  m_PrefabParentObject: {fileID: 0}
  m_PrefabInternal: {fileID: 100100000}
  serializedVersion: 5
  m_Component:
  - component: {fileID: 482806}
  - component: {fileID: 9585610}
  - component: {fileID: 21239396}
  m_Layer: 0
  m_Name: Visual
  m_TagString: Untagged
  m_Icon: {fileID: 0}
  m_NavMeshLayer: 0
  m_StaticEditorFlags: 0
  m_IsActive: 1
--- !u!4 &400000
Transform:
  m_ObjectHideFlags: 1
  m_PrefabParentObject: {fileID: 0}
  m_PrefabInternal: {fileID: 100100000}
  m_GameObject: {fileID: 100000}
  m_LocalRotation: {x: 0, y: 0, z: 0, w: 1}
  m_LocalPosition: {x: 0.5, y: 1, z: 0}
  m_LocalScale: {x: 1, y: 1, z: 1}
  m_Children:
  - {fileID: 482806}
  m_Father: {fileID: 0}
  m_RootOrder: 0
  m_LocalEulerAnglesHint: {x: 0, y: 0, z: 0}
--- !u!4 &482806
Transform:
  m_ObjectHideFlags: 1
  m_PrefabParentObject: {fileID: 0}
  m_PrefabInternal: {fileID: 100100000}
  m_GameObject: {fileID: 173962}
  m_LocalRotation: {x: 0, y: 0, z: 0, w: 1}
  m_LocalPosition: {x: 0, y: 0, z: 0}
  m_LocalScale: {x: 1, y: 1, z: 1}
  m_Children: []
  m_Father: {fileID: 400000}
  m_RootOrder: 0
  m_LocalEulerAnglesHint: {x: 0, y: 0, z: 0}
--- !u!61 &6100000
BoxCollider2D:
  m_ObjectHideFlags: 1
  m_PrefabParentObject: {fileID: 0}
  m_PrefabInternal: {fileID: 100100000}
  m_GameObject: {fileID: 100000}
  m_Enabled: 1
  m_Density: 1
  m_Material: {fileID: 0}
  m_IsTrigger: 0
  m_UsedByEffector: 0
  m_UsedByComposite: 0
  m_Offset: {x: 0, y: 0}
  m_SpriteTilingProperty:
    border: {x: 0, y: 0, z: 0, w: 0}
    pivot: {x: 0, y: 0}
    oldSize: {x: 0, y: 0}
    newSize: {x: 0, y: 0}
    adaptiveTilingThreshold: 0
    drawMode: 0
    adaptiveTiling: 0
  m_AutoTiling: 0
  serializedVersion: 2
  m_Size: {x: 0.32, y: 0.88}
  m_EdgeRadius: 0
--- !u!95 &9585610
Animator:
  serializedVersion: 3
  m_ObjectHideFlags: 1
  m_PrefabParentObject: {fileID: 0}
  m_PrefabInternal: {fileID: 100100000}
  m_GameObject: {fileID: 173962}
  m_Enabled: 1
  m_Avatar: {fileID: 0}
  m_Controller: {fileID: 9100000, guid: 00b6f7a45176d6f4faf52597738c6777, type: 2}
  m_CullingMode: 0
  m_UpdateMode: 0
  m_ApplyRootMotion: 0
  m_LinearVelocityBlending: 0
  m_WarningMessage: 
  m_HasTransformHierarchy: 1
  m_AllowConstantClipSamplingOptimization: 1
--- !u!114 &11400000
MonoBehaviour:
  m_ObjectHideFlags: 1
  m_PrefabParentObject: {fileID: 0}
  m_PrefabInternal: {fileID: 100100000}
  m_GameObject: {fileID: 100000}
  m_Enabled: 1
  m_EditorHideFlags: 0
  m_Script: {fileID: 11500000, guid: 8ee1224ee819bd6418867d9a5171806d, type: 3}
  m_Name: 
  m_EditorClassIdentifier: 
--- !u!114 &11400002
MonoBehaviour:
  m_ObjectHideFlags: 1
  m_PrefabParentObject: {fileID: 0}
  m_PrefabInternal: {fileID: 100100000}
  m_GameObject: {fileID: 100000}
  m_Enabled: 1
  m_EditorHideFlags: 0
  m_Script: {fileID: 11500000, guid: 0d522286c13b9ff41b33ba3ff16074d5, type: 3}
  m_Name: 
  m_EditorClassIdentifier: 
  staticEnvLayerMask:
    serializedVersion: 2
    m_Bits: 256
  envCheckDistance: 0.08
  minDistanceFromEnv: 0.04
  numOfIterations: 2
  enableOneWayPlatforms: 1
  oneWayPlatformsAreWalls: 1
  movingPlatformLayerMask:
    serializedVersion: 2
    m_Bits: 0
  additionalRaycastsPerSide: 0
  groundSpeed: 8
  timeToGroundSpeed: 0.1
  groundStopDistance: 0.333
  airSpeed: 5
  changeDirectionInAir: 1
  timeToAirSpeed: 0.2
  airStopDistance: 2
  fallSpeed: 16
  gravityMultiplier: 2
  fastFallSpeed: 32
  fastFallGravityMultiplier: 4
  ladderSpeed: 5
  jumpHeight: 1.5
  extraJumpHeight: 1.5
  numOfAirJumps: 1
  jumpWindowWhenFalling: 0.2
  jumpWindowWhenActivated: 0.2
  enableSlopes: 0
  angleAllowedForMoving: 80
  minimumSpeedToMoveUpSlipperySlope: 7.5
  changeSpeedOnSlopes: 0
  speedMultiplierOnSlope: 0.75
  stickOnGround: 0
  distanceToCheckToStick: 0.75
  enableWallJumps: 1
  wallJumpMultiplier: 1
  wallJumpAngle: 70
  enableWallSticks: 1
  wallSticksDuration: 1
  enableWallSlides: 1
  wallSlideSpeed: 5
  timeToWallSlideSpeed: 3
  enableCornerGrabs: 1
  cornerGrabDuration: 1000
  cornerJumpMultiplier: 0.5
  cornerDistanceCheck: 0.2
  normalizedValidWallInteraction: 0.2
  ignoreMovementAfterJump: 0.2
  wallInteractionCooldown: 0.1
  wallInteractionThreshold: 0.75
  enableDashes: 1
  dashDistance: 3
  dashDuration: 0.2
  dashCooldown: 1
  dashEasingFunction: 1
  endDashNoGravityDuration: 0.1
  movingPlatformDebug: 0
  iterationDebug: 0
--- !u!114 &11405038
MonoBehaviour:
  m_ObjectHideFlags: 1
  m_PrefabParentObject: {fileID: 0}
  m_PrefabInternal: {fileID: 100100000}
  m_GameObject: {fileID: 100000}
  m_Enabled: 1
  m_EditorHideFlags: 0
  m_Script: {fileID: 11500000, guid: d064d9116e7af4a4780d9869745abedf, type: 3}
  m_Name: 
  m_EditorClassIdentifier: 
  jumpRotationSpeed: 540
  visualChild: {fileID: 173962}
--- !u!212 &21239396
SpriteRenderer:
  m_ObjectHideFlags: 1
  m_PrefabParentObject: {fileID: 0}
  m_PrefabInternal: {fileID: 100100000}
  m_GameObject: {fileID: 173962}
  m_Enabled: 1
  m_CastShadows: 0
  m_ReceiveShadows: 0
  m_MotionVectors: 1
  m_LightProbeUsage: 0
  m_ReflectionProbeUsage: 1
  m_Materials:
  - {fileID: 10754, guid: 0000000000000000f000000000000000, type: 0}
  m_StaticBatchInfo:
    firstSubMesh: 0
    subMeshCount: 0
  m_StaticBatchRoot: {fileID: 0}
  m_ProbeAnchor: {fileID: 0}
  m_LightProbeVolumeOverride: {fileID: 0}
  m_ScaleInLightmap: 1
  m_PreserveUVs: 0
  m_IgnoreNormalsForChartDetection: 0
  m_ImportantGI: 0
  m_SelectedEditorRenderState: 0
  m_MinimumChartSize: 4
  m_AutoUVMaxDistance: 0.5
  m_AutoUVMaxAngle: 89
  m_LightmapParameters: {fileID: 0}
  m_SortingLayerID: 0
  m_SortingLayer: 0
  m_SortingOrder: 2
  m_Sprite: {fileID: 21300000, guid: 9dd5e173032002b4c8f2b371312582f5, type: 3}
  m_Color: {r: 1, g: 1, b: 1, a: 1}
  m_FlipX: 0
  m_FlipY: 0
  m_DrawMode: 0
  m_Size: {x: 1, y: 1}
  m_AdaptiveModeThreshold: 0.5
  m_SpriteTileMode: 0
--- !u!1001 &100100000
Prefab:
  m_ObjectHideFlags: 1
  serializedVersion: 2
  m_Modification:
    m_TransformParent: {fileID: 0}
    m_Modifications:
    - target: {fileID: 0}
      propertyPath: staticEnvLayerMask.m_Bits
      value: 0
      objectReference: {fileID: 0}
    - target: {fileID: 0}
      propertyPath: angleAllowedForMoving
      value: 80
      objectReference: {fileID: 0}
    - target: {fileID: 0}
      propertyPath: enableWallJumps
      value: 0
      objectReference: {fileID: 0}
    - target: {fileID: 0}
      propertyPath: enableWallSticks
      value: 0
      objectReference: {fileID: 0}
    - target: {fileID: 0}
      propertyPath: enableWallSlides
      value: 0
      objectReference: {fileID: 0}
    - target: {fileID: 0}
      propertyPath: enableCornerGrabs
      value: 1
      objectReference: {fileID: 0}
    - target: {fileID: 0}
      propertyPath: enableDashes
      value: 0
      objectReference: {fileID: 0}
    - target: {fileID: 0}
      propertyPath: timeToGroundSpeed
      value: .100000001
      objectReference: {fileID: 0}
    - target: {fileID: 0}
      propertyPath: cornerGrabDuration
      value: 1
      objectReference: {fileID: 0}
    - target: {fileID: 0}
      propertyPath: envCheckDistance
      value: 0.08
      objectReference: {fileID: 0}
    m_RemovedComponents: []
  m_ParentPrefab: {fileID: 0}
  m_RootGameObject: {fileID: 100000}
  m_IsPrefabParent: 1
