%YAML 1.1
%TAG !u! tag:unity3d.com,2011:
--- !u!78 &1
TagManager:
  serializedVersion: 2
  tags:
  - Through
  - Exit
  - Food
  - Enemy
  - Soda
  layers:
  - Default
  - TransparentFX
  - Ignore Raycast
  - 
  - Water
  - UI
  - 
  - 
  - Static Environment
  - Moving Platforms
  - 
  - 
  - 
  - 
  - 
  - 
  - 
  - 
  - 
  - 
  - 
  - 
  - 
  - 
  - 
  - 
  - 
  - 
  - 
  - 
  - 
  - 
  m_SortingLayers:
  - name: Background
    uniqueID: 3304951491
    locked: 0
  - name: Platforms
    uniqueID: 468627283
    locked: 0
  - name: Player
    uniqueID: 4016530543
    locked: 0
  - name: Foreground
    uniqueID: 1224516085
    locked: 0
  - name: Default
    uniqueID: 0
    locked: 0
