%YAML 1.1
%TAG !u! tag:unity3d.com,2011:
--- !u!1 &133658
GameObject:
  m_ObjectHideFlags: 0
  m_PrefabParentObject: {fileID: 0}
  m_PrefabInternal: {fileID: 100100000}
  serializedVersion: 5
  m_Component:
  - component: {fileID: 433658}
  - component: {fileID: 11433656}
  m_Layer: 0
  m_Name: GameManager
  m_TagString: Untagged
  m_Icon: {fileID: 0}
  m_NavMeshLayer: 0
  m_StaticEditorFlags: 0
  m_IsActive: 1
--- !u!4 &433658
Transform:
  m_ObjectHideFlags: 1
  m_PrefabParentObject: {fileID: 0}
  m_PrefabInternal: {fileID: 100100000}
  m_GameObject: {fileID: 133658}
  m_LocalRotation: {x: 0, y: 0, z: 0, w: 1}
  m_LocalPosition: {x: 0, y: 0, z: 0}
  m_LocalScale: {x: 1, y: 1, z: 1}
  m_Children: []
  m_Father: {fileID: 0}
  m_RootOrder: 0
  m_LocalEulerAnglesHint: {x: 0, y: 0, z: 0}
--- !u!114 &11433656
MonoBehaviour:
  m_ObjectHideFlags: 1
  m_PrefabParentObject: {fileID: 0}
  m_PrefabInternal: {fileID: 100100000}
  m_GameObject: {fileID: 133658}
  m_Enabled: 1
  m_EditorHideFlags: 0
  m_Script: {fileID: 11500000, guid: a7d59e4dfb9c9404b9471de0c983feac, type: 3}
  m_Name: 
  m_EditorClassIdentifier: 
  cameras:
  - {fileID: 0}
  - {fileID: 0}
  - {fileID: 0}
  - {fileID: 0}
  - {fileID: 0}
  boss: {fileID: 0}
  waitingBoss: {fileID: 0}
  mainTitle: {fileID: 0}
  maxTimeBossIsAway: 8
  bossComingTimer: 7
  bossWaitingTimer: 13
  gameRestartInSecs: 7
  levelStartDelay: 2
  turnDelay: 0.1
  spreadsheetSnapshotEvent: event:/snapshots/spreadsheet_snapshot
  platformerSnapshotEvent: event:/snapshots/platformer_snapshot
  tabSoundEvent: event:/metagame/player/alt-tab/player_tab
  bossFootstepsEvent: event:/metagame/boss/boss_approaching
  bossFiresYouEvent: event:/metagame/metagame_ui/metagame_lose
  officeAmbientSoundEvent: event:/metagame/office_ambience
  typingSoundEvent: event:/metagame/player/player_small_keys
--- !u!1001 &100100000
Prefab:
  m_ObjectHideFlags: 1
  serializedVersion: 2
  m_Modification:
    m_TransformParent: {fileID: 0}
    m_Modifications: []
    m_RemovedComponents: []
  m_ParentPrefab: {fileID: 0}
  m_RootGameObject: {fileID: 133658}
  m_IsPrefabParent: 1
