%YAML 1.1
%TAG !u! tag:unity3d.com,2011:
--- !u!1 &125946
GameObject:
  m_ObjectHideFlags: 0
  m_PrefabParentObject: {fileID: 0}
  m_PrefabInternal: {fileID: 100100000}
  serializedVersion: 5
  m_Component:
  - component: {fileID: 452244}
  - component: {fileID: 9534506}
  - component: {fileID: 21263154}
  m_Layer: 0
  m_Name: Visual
  m_TagString: Untagged
  m_Icon: {fileID: 0}
  m_NavMeshLayer: 0
  m_StaticEditorFlags: 0
  m_IsActive: 1
--- !u!1 &144560
GameObject:
  m_ObjectHideFlags: 0
  m_PrefabParentObject: {fileID: 0}
  m_PrefabInternal: {fileID: 100100000}
  serializedVersion: 5
  m_Component:
  - component: {fileID: 456494}
  - component: {fileID: 11457388}
  - component: {fileID: 6103172}
  - component: {fileID: 11445732}
  - component: {fileID: 11430076}
  m_Layer: 0
  m_Name: Simple AI
  m_TagString: Untagged
  m_Icon: {fileID: 0}
  m_NavMeshLayer: 0
  m_StaticEditorFlags: 0
  m_IsActive: 1
--- !u!4 &452244
Transform:
  m_ObjectHideFlags: 1
  m_PrefabParentObject: {fileID: 0}
  m_PrefabInternal: {fileID: 100100000}
  m_GameObject: {fileID: 125946}
  m_LocalRotation: {x: 0, y: 0, z: 0, w: 1}
  m_LocalPosition: {x: 0, y: 0, z: 0}
  m_LocalScale: {x: 1, y: 1, z: 1}
  m_Children: []
  m_Father: {fileID: 456494}
  m_RootOrder: 0
  m_LocalEulerAnglesHint: {x: 0, y: 0, z: 0}
--- !u!4 &456494
Transform:
  m_ObjectHideFlags: 1
  m_PrefabParentObject: {fileID: 0}
  m_PrefabInternal: {fileID: 100100000}
  m_GameObject: {fileID: 144560}
  m_LocalRotation: {x: 0, y: 0, z: 0, w: 1}
  m_LocalPosition: {x: 5, y: 3.6, z: 0}
  m_LocalScale: {x: 1, y: 1, z: 1}
  m_Children:
  - {fileID: 452244}
  m_Father: {fileID: 0}
  m_RootOrder: 0
  m_LocalEulerAnglesHint: {x: 0, y: 0, z: 0}
--- !u!61 &6103172
BoxCollider2D:
  m_ObjectHideFlags: 1
  m_PrefabParentObject: {fileID: 0}
  m_PrefabInternal: {fileID: 100100000}
  m_GameObject: {fileID: 144560}
  m_Enabled: 1
  m_Density: 1
  m_Material: {fileID: 0}
  m_IsTrigger: 0
  m_UsedByEffector: 0
  m_UsedByComposite: 0
  m_Offset: {x: 0, y: 0}
  m_SpriteTilingProperty:
    border: {x: 0, y: 0, z: 0, w: 0}
    pivot: {x: 0, y: 0}
    oldSize: {x: 0, y: 0}
    newSize: {x: 0, y: 0}
    adaptiveTilingThreshold: 0
    drawMode: 0
    adaptiveTiling: 0
  m_AutoTiling: 0
  serializedVersion: 2
  m_Size: {x: 0.36, y: 0.88}
  m_EdgeRadius: 0
--- !u!95 &9534506
Animator:
  serializedVersion: 3
  m_ObjectHideFlags: 1
  m_PrefabParentObject: {fileID: 0}
  m_PrefabInternal: {fileID: 100100000}
  m_GameObject: {fileID: 125946}
  m_Enabled: 1
  m_Avatar: {fileID: 0}
  m_Controller: {fileID: 9100000, guid: 00b6f7a45176d6f4faf52597738c6777, type: 2}
  m_CullingMode: 0
  m_UpdateMode: 0
  m_ApplyRootMotion: 0
  m_LinearVelocityBlending: 0
  m_WarningMessage: 
  m_HasTransformHierarchy: 1
  m_AllowConstantClipSamplingOptimization: 1
--- !u!114 &11430076
MonoBehaviour:
  m_ObjectHideFlags: 1
  m_PrefabParentObject: {fileID: 0}
  m_PrefabInternal: {fileID: 100100000}
  m_GameObject: {fileID: 144560}
  m_Enabled: 1
  m_EditorHideFlags: 0
  m_Script: {fileID: 11500000, guid: d064d9116e7af4a4780d9869745abedf, type: 3}
  m_Name: 
  m_EditorClassIdentifier: 
  jumpRotationSpeed: 580
  visualChild: {fileID: 125946}
--- !u!114 &11445732
MonoBehaviour:
  m_ObjectHideFlags: 1
  m_PrefabParentObject: {fileID: 0}
  m_PrefabInternal: {fileID: 100100000}
  m_GameObject: {fileID: 144560}
  m_Enabled: 1
  m_EditorHideFlags: 0
  m_Script: {fileID: 11500000, guid: 1ef2a0eff7ba89c468d0092d3fb1a3b3, type: 3}
  m_Name: 
  m_EditorClassIdentifier: 
  distanceCheckForJump: 2
  heightToFallFast: 4
  delayForWallJump: 0.1
--- !u!114 &11457388
MonoBehaviour:
  m_ObjectHideFlags: 1
  m_PrefabParentObject: {fileID: 0}
  m_PrefabInternal: {fileID: 100100000}
  m_GameObject: {fileID: 144560}
  m_Enabled: 1
  m_EditorHideFlags: 0
  m_Script: {fileID: 11500000, guid: 0d522286c13b9ff41b33ba3ff16074d5, type: 3}
  m_Name: 
  m_EditorClassIdentifier: 
  staticEnvLayerMask:
    serializedVersion: 2
    m_Bits: 256
  envCheckDistance: 0.02
  minDistanceFromEnv: 0.01
  numOfIterations: 2
  enableOneWayPlatforms: 0
  oneWayPlatformsAreWalls: 1
  movingPlatformLayerMask:
    serializedVersion: 2
    m_Bits: 0
  additionalRaycastsPerSide: 0
  groundSpeed: 10
  timeToGroundSpeed: 0
  groundStopDistance: 0
  airSpeed: 5
  changeDirectionInAir: 1
  timeToAirSpeed: 0
  airStopDistance: 0
  fallSpeed: 16
  gravityMultiplier: 3.5
  fastFallSpeed: 32
  fastFallGravityMultiplier: 3.5
  ladderSpeed: 5
  jumpHeight: 3
  extraJumpHeight: 0
  numOfAirJumps: 0
  jumpWindowWhenFalling: 0
  jumpWindowWhenActivated: 0
  enableSlopes: 0
  angleAllowedForMoving: 50
  minimumSpeedToMoveUpSlipperySlope: 7.5
  changeSpeedOnSlopes: 0
  speedMultiplierOnSlope: 0.5
  stickOnGround: 1
  distanceToCheckToStick: 0
  enableWallJumps: 1
  wallJumpMultiplier: 1
  wallJumpAngle: 60
  enableWallSticks: 1
  wallSticksDuration: 5000
  enableWallSlides: 0
  wallSlideSpeed: 1
  timeToWallSlideSpeed: 0
  enableCornerGrabs: 0
  cornerGrabDuration: 5000
  cornerJumpMultiplier: 1
  cornerDistanceCheck: 0.1
  normalizedValidWallInteraction: 0.2
  ignoreMovementAfterJump: 0
  wallInteractionCooldown: 0
  wallInteractionThreshold: 0.5
  enableDashes: 0
  dashDistance: 1
  dashDuration: 0.2
  dashCooldown: 1
  dashEasingFunction: 1
  endDashNoGravityDuration: 0.1
  movingPlatformDebug: 0
  iterationDebug: 0
--- !u!212 &21263154
SpriteRenderer:
  m_ObjectHideFlags: 1
  m_PrefabParentObject: {fileID: 0}
  m_PrefabInternal: {fileID: 100100000}
  m_GameObject: {fileID: 125946}
  m_Enabled: 1
  m_CastShadows: 0
  m_ReceiveShadows: 0
  m_MotionVectors: 1
  m_LightProbeUsage: 1
  m_ReflectionProbeUsage: 1
  m_Materials:
  - {fileID: 10754, guid: 0000000000000000f000000000000000, type: 0}
  m_StaticBatchInfo:
    firstSubMesh: 0
    subMeshCount: 0
  m_StaticBatchRoot: {fileID: 0}
  m_ProbeAnchor: {fileID: 0}
  m_LightProbeVolumeOverride: {fileID: 0}
  m_ScaleInLightmap: 1
  m_PreserveUVs: 0
  m_IgnoreNormalsForChartDetection: 0
  m_ImportantGI: 0
  m_SelectedEditorRenderState: 0
  m_MinimumChartSize: 4
  m_AutoUVMaxDistance: 0.5
  m_AutoUVMaxAngle: 89
  m_LightmapParameters: {fileID: 0}
  m_SortingLayerID: 0
  m_SortingLayer: 0
  m_SortingOrder: 0
  m_Sprite: {fileID: 21300000, guid: 9dd5e173032002b4c8f2b371312582f5, type: 3}
  m_Color: {r: 1, g: 1, b: 1, a: 1}
  m_FlipX: 0
  m_FlipY: 0
  m_DrawMode: 0
  m_Size: {x: 1, y: 1}
  m_AdaptiveModeThreshold: 0.5
  m_SpriteTileMode: 0
--- !u!1001 &100100000
Prefab:
  m_ObjectHideFlags: 1
  serializedVersion: 2
  m_Modification:
    m_TransformParent: {fileID: 0}
    m_Modifications:
    - target: {fileID: 0}
      propertyPath: enableDashes
      value: 0
      objectReference: {fileID: 0}
    - target: {fileID: 0}
      propertyPath: delayForWallJump
      value: .100000001
      objectReference: {fileID: 0}
    m_RemovedComponents: []
  m_ParentPrefab: {fileID: 0}
  m_RootGameObject: {fileID: 144560}
  m_IsPrefabParent: 1
